<?xml version="1.0" standalone="no"?>
<!DOCTYPE svg PUBLIC "-//W3C//DTD SVG 20010904//EN"
 "http://www.w3.org/TR/2001/REC-SVG-20010904/DTD/svg10.dtd">
<svg version="1.0" xmlns="http://www.w3.org/2000/svg"
 width="63.000000pt" height="62.000000pt" viewBox="0 0 63.000000 62.000000"
 preserveAspectRatio="xMidYMid meet">

<g transform="translate(0.000000,62.000000) scale(0.100000,-0.100000)"
fill="#000000" stroke="none">
<path d="M0 310 l0 -310 315 0 315 0 0 310 0 310 -315 0 -315 0 0 -310z m421
151 c13 -10 32 -17 42 -15 9 1 15 -2 11 -7 -3 -5 -11 -6 -17 -2 -7 4 7 -14 31
-40 38 -42 47 -58 43 -79 0 -5 2 -8 7 -8 4 0 5 -24 2 -52 -4 -38 -9 -52 -19
-50 -8 2 -18 -3 -22 -10 -7 -10 -9 -10 -9 0 0 6 -9 12 -19 12 -16 0 -20 -8
-23 -46 l-3 -46 -73 -2 c-39 0 -72 3 -72 8 0 4 -7 6 -15 2 -8 -3 -14 -2 -12 2
1 4 -20 29 -46 55 -27 26 -45 47 -41 47 4 0 3 5 -4 12 -7 7 -12 41 -12 83 l0
71 48 -6 47 -5 1 -55 c1 -30 2 -70 3 -88 l1 -33 85 2 86 2 -3 86 -3 86 -85 3
c-47 2 -86 5 -88 7 -2 2 -5 22 -5 44 l-2 41 71 0 c54 0 77 -4 95 -19z m-226
-270 c3 -5 2 -12 -3 -15 -5 -3 -9 1 -9 9 0 17 3 19 12 6z"/>
</g>
</svg>
